{"items":[{"external_urls":{"spotify":"https://open.spotify.com/artist/1g9nyCbUH0kbNgXAsw7tUB"},"followers":{"href":null,"total":138389},"genres":["nederlandse hardstyle"],"href":"https://api.spotify.com/v1/artists/1g9nyCbUH0kbNgXAsw7tUB","id":"1g9nyCbUH0kbNgXAsw7tUB","images":[{"height":640,"url":"https://i.scdn.co/image/ab6761610000e5eb2acf5d62bb94da819d0719f4","width":640},{"height":320,"url":"https://i.scdn.co/image/ab676161000051742acf5d62bb94da819d0719f4","width":320},{"height":160,"url":"https://i.scdn.co/image/ab6761610000f1782acf5d62bb94da819d0719f4","width":160}],"name":"Bankzitters","popularity":57,"type":"artist","uri":"spotify:artist:1g9nyCbUH0kbNgXAsw7tUB"},{"external_urls":{"spotify":"https://open.spotify.com/artist/2uDcwtlfxsAdQ32lw0Do2a"},"followers":{"href":null,"total":5},"genres":[],"href":"https://api.spotify.com/v1/artists/2uDcwtlfxsAdQ32lw0Do2a","id":"2uDcwtlfxsAdQ32lw0Do2a","images":[{"height":640,"url":"https://i.scdn.co/image/ab67616d0000b2731b0a9ed49e39981620712de8","width":640},{"height":300,"url":"https://i.scdn.co/image/ab67616d00001e021b0a9ed49e39981620712de8","width":300},{"height":64,"url":"https://i.scdn.co/image/ab67616d000048511b0a9ed49e39981620712de8","width":64}],"name":"Lil Pipeline","popularity":0,"type":"artist","uri":"spotify:artist:2uDcwtlfxsAdQ32lw0Do2a"},{"external_urls":{"spotify":"https://open.spotify.com/artist/4RbUYWWjEBb4umwqakOEd3"},"followers":{"href":null,"total":381197},"genres":["frenchcore","tekk","uptempo hardcore"],"href":"https://api.spotify.com/v1/artists/4RbUYWWjEBb4umwqakOEd3","id":"4RbUYWWjEBb4umwqakOEd3","images":[{"height":640,"url":"https://i.scdn.co/image/ab6761610000e5eb6235b3c636883b14ff47f1a3","width":640},{"height":320,"url":"https://i.scdn.co/image/ab676161000051746235b3c636883b14ff47f1a3","width":320},{"height":160,"url":"https://i.scdn.co/image/ab6761610000f1786235b3c636883b14ff47f1a3","width":160}],"name":"Dr. Peacock","popularity":57,"type":"artist","uri":"spotify:artist:4RbUYWWjEBb4umwqakOEd3"},{"external_urls":{"spotify":"https://open.spotify.com/artist/2kK1cYRoYo24RzsHADtD0E"},"followers":{"href":null,"total":52413},"genres":["frenchcore","hardcore techno"],"href":"https://api.spotify.com/v1/artists/2kK1cYRoYo24RzsHADtD0E","id":"2kK1cYRoYo24RzsHADtD0E","images":[{"height":640,"url":"https://i.scdn.co/image/ab6761610000e5eb25fe61bf6655955fa6f0dd55","width":640},{"height":320,"url":"https://i.scdn.co/image/ab6761610000517425fe61bf6655955fa6f0dd55","width":320},{"height":160,"url":"https://i.scdn.co/image/ab6761610000f17825fe61bf6655955fa6f0dd55","width":160}],"name":"Re-Style","popularity":43,"type":"artist","uri":"spotify:artist:2kK1cYRoYo24RzsHADtD0E"},{"external_urls":{"spotify":"https://open.spotify.com/artist/1Cs0zKBU1kc0i8ypK3B9ai"},"followers":{"href":null,"total":25456937},"genres":["big room","dance pop","edm","pop","pop dance"],"href":"https://api.spotify.com/v1/artists/1Cs0zKBU1kc0i8ypK3B9ai","id":"1Cs0zKBU1kc0i8ypK3B9ai","images":[{"height":640,"url":"https://i.scdn.co/image/ab6761610000e5ebf150017ca69c8793503c2d4f","width":640},{"height":320,"url":"https://i.scdn.co/image/ab67616100005174f150017ca69c8793503c2d4f","width":320},{"height":160,"url":"https://i.scdn.co/image/ab6761610000f178f150017ca69c8793503c2d4f","width":160}],"name":"David Guetta","popularity":85,"type":"artist","uri":"spotify:artist:1Cs0zKBU1kc0i8ypK3B9ai"},{"external_urls":{"spotify":"https://open.spotify.com/artist/0ETJQforv5OXgDgidQv9qd"},"followers":{"href":null,"total":138064},"genres":["dutch house","electro house","house"],"href":"https://api.spotify.com/v1/artists/0ETJQforv5OXgDgidQv9qd","id":"0ETJQforv5OXgDgidQv9qd","images":[{"height":640,"url":"https://i.scdn.co/image/ab6761610000e5eb0edb4d8f49be14cca268cdbe","width":640},{"height":320,"url":"https://i.scdn.co/image/ab676161000051740edb4d8f49be14cca268cdbe","width":320},{"height":160,"url":"https://i.scdn.co/image/ab6761610000f1780edb4d8f49be14cca268cdbe","width":160}],"name":"HI-LO","popularity":55,"type":"artist","uri":"spotify:artist:0ETJQforv5OXgDgidQv9qd"},{"external_urls":{"spotify":"https://open.spotify.com/artist/0HlxL5hisLf59ETEPM3cUA"},"followers":{"href":null,"total":830989},"genres":["eurodance","german techno","hamburg electronic","happy hardcore"],"href":"https://api.spotify.com/v1/artists/0HlxL5hisLf59ETEPM3cUA","id":"0HlxL5hisLf59ETEPM3cUA","images":[{"height":640,"url":"https://i.scdn.co/image/ab6761610000e5eb0bf204a5c0dcc8ccf293f264","width":640},{"height":320,"url":"https://i.scdn.co/image/ab676161000051740bf204a5c0dcc8ccf293f264","width":320},{"height":160,"url":"https://i.scdn.co/image/ab6761610000f1780bf204a5c0dcc8ccf293f264","width":160}],"name":"Scooter","popularity":64,"type":"artist","uri":"spotify:artist:0HlxL5hisLf59ETEPM3cUA"},{"external_urls":{"spotify":"https://open.spotify.com/artist/2o5jDhtHVPhrJdv3cEQ99Z"},"followers":{"href":null,"total":7256002},"genres":["big room","brostep","dutch edm","edm","house","pop dance","progressive electro house","slap house","trance"],"href":"https://api.spotify.com/v1/artists/2o5jDhtHVPhrJdv3cEQ99Z","id":"2o5jDhtHVPhrJdv3cEQ99Z","images":[{"height":640,"url":"https://i.scdn.co/image/ab6761610000e5ebe84e08fb1dfa2bf9b5a61563","width":640},{"height":320,"url":"https://i.scdn.co/image/ab67616100005174e84e08fb1dfa2bf9b5a61563","width":320},{"height":160,"url":"https://i.scdn.co/image/ab6761610000f178e84e08fb1dfa2bf9b5a61563","width":160}],"name":"Tiësto","popularity":82,"type":"artist","uri":"spotify:artist:2o5jDhtHVPhrJdv3cEQ99Z"},{"external_urls":{"spotify":"https://open.spotify.com/artist/7CLsFRcEkn0Amc9VlVOFwR"},"followers":{"href":null,"total":61699},"genres":["hypertechno"],"href":"https://api.spotify.com/v1/artists/7CLsFRcEkn0Amc9VlVOFwR","id":"7CLsFRcEkn0Amc9VlVOFwR","images":[{"height":640,"url":"https://i.scdn.co/image/ab6761610000e5eb4a83f4f6f217095a4e0ea662","width":640},{"height":320,"url":"https://i.scdn.co/image/ab676161000051744a83f4f6f217095a4e0ea662","width":320},{"height":160,"url":"https://i.scdn.co/image/ab6761610000f1784a83f4f6f217095a4e0ea662","width":160}],"name":"LUNAX","popularity":59,"type":"artist","uri":"spotify:artist:7CLsFRcEkn0Amc9VlVOFwR"},{"external_urls":{"spotify":"https://open.spotify.com/artist/4sQNUQjOYj9rV2sdfJ8laS"},"followers":{"href":null,"total":483582},"genres":["dark hardcore","hardcore techno","tekk","uptempo hardcore"],"href":"https://api.spotify.com/v1/artists/4sQNUQjOYj9rV2sdfJ8laS","id":"4sQNUQjOYj9rV2sdfJ8laS","images":[{"height":640,"url":"https://i.scdn.co/image/ab6761610000e5ebc5f1b5bf40435c2d378a07ba","width":640},{"height":320,"url":"https://i.scdn.co/image/ab67616100005174c5f1b5bf40435c2d378a07ba","width":320},{"height":160,"url":"https://i.scdn.co/image/ab6761610000f178c5f1b5bf40435c2d378a07ba","width":160}],"name":"Angerfist","popularity":54,"type":"artist","uri":"spotify:artist:4sQNUQjOYj9rV2sdfJ8laS"}],"total":165,"limit":10,"offset":0,"href":"https://api.spotify.com/v1/me/top/artists?limit=10","next":"https://api.spotify.com/v1/me/top/artists?offset=10&limit=10","previous":null}
